{
  "identity": "todo",
  "connection": "default",
  "defaultTemplate": "default",
  "displayedAttribute": "",
  "schema": true,
  "attributes": {
    "title": {
      "type": "string"
    },
    "done": {
      "type": "boolean"
    },
    "lang": {
      "type": "string",
      "required": true
    },
    "template": {
      "type": "string",
      "required": true
    },
    "id_ref": {
      "type": "int"
    },
    "createdBy": {
      "model": "user"
    },
    "updatedBy": {
      "model": "user"
    },
    "contributors": {
      "collection": "user",
      "via": "todos"
    }
  },
  "autoCreatedAt": true,
  "autoUpdatedAt": true
}
